…
<img src="Figs/Descriptive plots-1.png" style="display: block; margin: auto;" />

```{.r .Routp}
boxplot(methylation[,1:100])
```

<img src="Figs/Descriptive plots-2.png" style="display: block; margin: auto;" />

```{.r .Routp}
print(ClinicalVars)
table(ClinicalVars$group)
## # A tibble: 85 × 6
##    ID         group group_ds   age sex   family
##    <chr>      <fct> <fct>    <int> <fct>  <int>
##  1 GSM1272122 DS    yes         18 M          1
##  2 GSM1272123 DS    yes         12 F          3
##  3 GSM1272124 DS    yes         13 F          7
##  4 GSM1272125 DS    yes         24 M          9
##  5 GSM1272126 DS    yes         33 M         10
##  6 GSM1272127 DS    yes         31 F         11
##  7 GSM1272128 DS    yes         19 F         13
##  8 GSM1272129 DS    yes         29 M         20
##  9 GSM1272130 DS    yes         22 F         23
## 10 GSM1272131 DS    yes         36 M         28
## # … with 75 more rows
## 
## DS SB MA 
## 29 27 29
```
…
